Multiple Regression
…
# Get regression table:
get_regression_table(score_model_interaction)

## # A tibble: 4 x 7
##   term           estimate std_error statistic p_value lower_ci upper_ci
##   <chr>             <dbl>     <dbl>     <dbl>   <dbl>    <dbl>    <dbl>
## 1 intercept         4.88      0.205     23.8    0        4.48     5.29 
## 2 age              -0.018     0.004     -3.92   0       -0.026   -0.009
## 3 gendermale       -0.446     0.265     -1.68   0.094   -0.968    0.076
## 4 age:gendermale    0.014     0.006      2.45   0.015    0.003    0.024

regression_points <- get_regression_points(score_model_interaction)
regression_points

## # A tibble: 463 x 6
##       ID score   age gender score_hat residual
##    <int> <dbl> <int> <fct>      <dbl>    <dbl>
##  1     1   4.7    36 female      4.25    0.448
##  2     2   4.1    36 female      4.25   -0.152
##  3     3   3.9    36 female      4.25   -0.352
##  4     4   4.8    36 female      4.25    0.548
##  5     5   4.6    59 male        4.20    0.399
##  6     6   4.3    59 male        4.20    0.099
##  7     7   2.8    59 male        4.20   -1.40 
##  8     8   4.1    51 male        4.23   -0.133
##  9     9   3.4    51 male        4.23   -0.833
## 10    10   4.5    40 female      4.18    0.318
## #  with 453 more rows
…
## # A tibble: 3 x 7
##   term       estimate std_error statistic p_value lower_ci upper_ci
##   <chr>         <dbl>     <dbl>     <dbl>   <dbl>    <dbl>    <dbl>
## 1 intercept     4.48      0.125     35.8    0        4.24     4.73 
## 2 age          -0.009     0.003     -3.28   0.001   -0.014   -0.003
## 3 gendermale    0.191     0.052      3.63   0        0.087    0.294

regression_points_parallel <- get_regression_points(score_model_parallel_slopes)
regression_points_parallel

## # A tibble: 463 x 6
##       ID score   age gender score_hat residual
##    <int> <dbl> <int> <fct>      <dbl>    <dbl>
##  1     1   4.7    36 female      4.17    0.528
##  2     2   4.1    36 female      4.17   -0.072
##  3     3   3.9    36 female      4.17   -0.272
##  4     4   4.8    36 female      4.17    0.628
##  5     5   4.6    59 male        4.16    0.437
##  6     6   4.3    59 male        4.16    0.137
##  7     7   2.8    59 male        4.16   -1.36 
##  8     8   4.1    51 male        4.23   -0.132
##  9     9   3.4    51 male        4.23   -0.832
## 10    10   4.5    40 female      4.14    0.363
## #  with 453 more rows
…
Observe there is a positive relationship between credit limit and credit card debt: as credit limit increases so also does credit card debt. This is consistent with the strongly positive correlation coefficient of 0.862 we computed earlier. In the case of income, the positive relationship doesnt appear as strong, given the weakly positive correlation coefficient of 0.464.

credit_ch6 %>% 
  select(debt, credit_rating, age)

## # A tibble: 400 x 3
##     debt credit_rating   age
##    <int>         <int> <int>
##  1   333           283    34
##  2   903           483    82
##  3   580           514    71
##  4   964           681    36
##  5   331           357    68
##  6  1151           569    77
##  7   203           259    37
##  8   872           512    87
##  9   279           266    66
## 10  1350           491    41
## #  with 390 more rows
…
## # A tibble: 3 x 7
##   term          estimate std_error statistic p_value lower_ci upper_ci
##   <chr>            <dbl>     <dbl>     <dbl>   <dbl>    <dbl>    <dbl>
## 1 intercept      -270.      44.8       -6.02       0  -358.    -181.  
## 2 credit_rating     2.59     0.074     34.8        0     2.45     2.74
## 3 age              -2.35     0.668     -3.52       0    -3.66    -1.04

Observed/fitted values and residuals

get_regression_points(debt_model)

## # A tibble: 400 x 6
##       ID  debt credit_limit income debt_hat residual
##    <int> <int>        <int>  <dbl>    <dbl>    <dbl>
##  1     1   333         3606   14.9     454.   -121. 
##  2     2   903         6645  106.      559.    344. 
##  3     3   580         7075  105.      683.   -103. 
##  4     4   964         9504  149.      986.    -21.7
##  5     5   331         4897   55.9     481.   -150. 
##  6     6  1151         8047   80.2    1127.     23.6
##  7     7   203         3388   21.0     349.   -146. 
##  8     8   872         7114   71.4     948.    -76.0
##  9     9   279         3300   15.1     371.    -92.2
## 10    10  1350         6819   71.1     873.    477. 
## #  with 390 more rows
…
