Exploratory Data Analysis
…
Its good practice to repeat your analysis with and without the outliers. If they have minimal effect on the results, and you cant figure out why theyre there, its reasonable to replace them with missing values, and move on. However, if they have a substantial effect on your results, you shouldnt drop them without justification. Youll need to figure out what caused them (e.g.a data entry error) and disclose that you removed them in your write-up.

Missing values

If youve encountered unusual values in your dataset, and simply want to move on to the rest of your analysis, you have two options.

Drop the entire row with the strange values:

diamonds2 <- diamonds %>% 
  filter(between(y,3,20))

diamonds2

## # A tibble: 53,931 x 10
##    carat cut       color clarity depth table price     x     y     z
##    <dbl> <ord>     <ord> <ord>   <dbl> <dbl> <int> <dbl> <dbl> <dbl>
##  1 0.23  Ideal     E     SI2      61.5    55   326  3.95  3.98  2.43
##  2 0.21  Premium   E     SI1      59.8    61   326  3.89  3.84  2.31
##  3 0.23  Good      E     VS1      56.9    65   327  4.05  4.07  2.31
##  4 0.290 Premium   I     VS2      62.4    58   334  4.2   4.23  2.63
##  5 0.31  Good      J     SI2      63.3    58   335  4.34  4.35  2.75
##  6 0.24  Very Good J     VVS2     62.8    57   336  3.94  3.96  2.48
##  7 0.24  Very Good I     VVS1     62.3    57   336  3.95  3.98  2.47
##  8 0.26  Very Good H     SI1      61.9    55   337  4.07  4.11  2.53
##  9 0.22  Fair      E     VS2      65.1    61   337  3.87  3.78  2.49
## 10 0.23  Very Good H     VS1      59.4    61   338  4     4.05  2.39
## #  with 53,921 more rows
…
